{
  "parent": "endrem:main/root",
  "display": {
    "icon": {
      "item": "endrem:wither_pearl"
    },
    "title": {
      "translate": "advancements.main.wither_pearl.title"
    },
    "description": {
      "translate": "advancements.main.wither_pearl.description"
    },
    "frame": "task",
    "show_toast": true,
    "announce_to_chat": true,
    "hidden": false
  },
  "criteria": {
    "wither_pearl": {
      "trigger": "minecraft:inventory_changed",
      "conditions": {
        "items": [
          {
            "item": "endrem:wither_pearl"
          }
        ]
      }
    }
  },
  "requirements": [
    [
      "wither_pearl"
    ]
  ]
}